﻿Raub,Rayford,m,34,159.5,60.6,Massage,$65.00
Reisman,Harold,m,61,160.4,60.5,Chiropractic,$195.00
Boeke,Marcelino,m,35,157.8,62.9,Acupuncture,$130.00
Miro,Collin,m,51,170.3,59.5,Acupuncture,$130.00
Haston,Jae,m,42,166.9,62.8,Acupuncture,$130.00
Ballenger,Phillip,m,41,188.5,67.9,Chiropractic,$195.00
Trogdon,Solomon,m,41,158.3,65.5,Massage,$65.00
Woodford,Jeff,m,32,172.4,61.1,Massage,$65.00
Mcleish,Rodolfo,m,50,168.3,61.9,Acupuncture,$130.00
Dildine,Abram,m,64,165.,57.6,Chiropractic,$195.00
Davies,Burt,m,33,183.7,58.3,Chiropractic,$195.00
Creek,Deandre,m,60,167.3,63.9,Massage,$65.00
Pinder,Connie,m,36,152.7,63.6,Acupuncture,$130.00
Banton,Orville,m,64,171.4,65.1,Acupuncture,$130.00
Mcnatt,Jordon,m,56,163.3,56.5,Chiropractic,$195.00
Vowell,Quentin,m,68,165.,62.8,Massage,$65.00
Cheeks,Damian,m,61,149.4,61.1,Acupuncture,$130.00
Augustine,Pedro,m,36,153.2,57.8,Massage,$65.00
Sproles,Floyd,m,63,160.2,71.4,Chiropractic,$195.00
Branham,Bill,m,33,167.6,59.6,Acupuncture,$130.00
Matta,Taylor,m,37,162.9,61.7,Acupuncture,$130.00
Tatom,Julius,m,62,149.7,61.6,Acupuncture,$130.00
Gatchell,Carlos,m,32,163.4,68.4,Acupuncture,$130.00
Maly,Carey,m,60,159.,58.2,Chiropractic,$195.00
Cady,Alexis,m,39,165.2,60.4,Acupuncture,$130.00
Arata,Peter,m,51,165.3,61.,Massage,$65.00
Arens,Tyrell,m,22,158.5,56.,Acupuncture,$130.00
Crumble,Hosea,m,22,168.6,60.6,Acupuncture,$130.00
Leinen,Lawerence,m,39,166.2,66.7,Massage,$65.00
Busby,Jonas,m,44,163.1,63.,Chiropractic,$195.00
Reel,Keneth,m,58,162.,55.7,Chiropractic,$195.00
Chong,Johnathon,m,59,152.7,57.8,Acupuncture,$130.00
Flora,Allan,m,70,154.4,64.8,Chiropractic,$195.00
Herrick,Rudolf,m,30,158.7,57.7,Acupuncture,$130.00
Armas,Newton,m,55,147.7,64.,Chiropractic,$195.00
Heine,Damon,m,48,175.1,62.2,Chiropractic,$195.00
Lyttle,Nathanial,m,50,173.4,70.5,Chiropractic,$195.00
Dahn,Buddy,m,27,165.6,56.,Acupuncture,$130.00
Regina,Truman,m,42,168.2,60.2,Massage,$65.00
Arvidson,Ariel,m,29,159.1,63.9,Chiropractic,$195.00
Dymond,Dorian,m,26,162.5,60.8,Acupuncture,$130.00
Steck,Ahmad,m,38,156.8,66.6,Acupuncture,$130.00
Kuck,Lorenzo,m,26,154.7,61.,Acupuncture,$130.00
Mincey,Scotty,m,63,167.8,62.5,Chiropractic,$195.00
Ammons,Quinton,m,69,171.1,57.4,Acupuncture,$130.00
Doria,Rogelio,m,29,160.5,52.3,Massage,$65.00
Campfield,Rusty,m,26,172.8,67.7,Acupuncture,$130.00
Desiderio,Mauricio,m,49,159.7,59.,Acupuncture,$130.00
Josephson,Frances,m,35,181.8,58.5,Chiropractic,$195.00
Imperato,Noah,m,31,162.9,60.6,Chiropractic,$195.00
Sick,Sima,f,42,160.5,70.2,Acupuncture,$130.00
Palmer,Kristine,f,36,167.,62.3,Chiropractic,$195.00
Stock,Azalee,f,55,153.9,67.1,Massage,$65.00
Haller,Golden,f,68,146.4,65.3,Acupuncture,$130.00
Rosales,Lahoma,f,37,170.8,59.2,Massage,$65.00
Weyand,Regina,f,36,180.7,61.7,Massage,$65.00
Cowherd,Belinda,f,66,170.9,61.,Chiropractic,$195.00
Ericksen,Loree,f,40,157.7,63.,Chiropractic,$195.00
Rosser,Cleta,f,54,166.3,61.6,Chiropractic,$195.00
Wiggin,Bulah,f,26,168.8,64.9,Chiropractic,$195.00
Hydrick,Darla,f,57,149.9,58.,Acupuncture,$130.00
Yanez,Lesha,f,59,152.2,55.5,Chiropractic,$195.00
Vanasse,Meda,f,66,166.1,68.9,Acupuncture,$130.00
Sane,Maragret,f,30,157.5,60.4,Acupuncture,$130.00
Hiott,Parthenia,f,31,177.3,61.8,Acupuncture,$130.00
Bivona,Naida,f,58,157.7,66.1,Acupuncture,$130.00
Gulino,Kenisha,f,40,150.1,57.6,Chiropractic,$195.00
Bellomy,Ceola,f,26,183.,65.9,Chiropractic,$195.00
Bauer,Leola,f,51,174.3,72.8,Chiropractic,$195.00
Figueredo,Paige,f,66,157.9,63.7,Massage,$65.00
Bossert,Pearlie,f,25,168.2,69.6,Chiropractic,$195.00
Mole,Rima,f,33,163.,55.7,Chiropractic,$195.00
Emmert,Johanne,f,45,176.7,58.1,Massage,$65.00
Clark,Brianna,f,37,158.2,63.1,Acupuncture,$130.00
Hecht,Marlana,f,41,161.6,62.3,Chiropractic,$195.00
Boggess,Alta,f,66,178.9,62.5,Massage,$65.00
Acebedo,Kendal,f,63,182.5,64.9,Chiropractic,$195.00
Capella,Shirely,f,51,162.6,64.8,Chiropractic,$195.00
Savard,Carolynn,f,34,166.9,61.4,Chiropractic,$195.00
Beltran,Dagny,f,54,148.1,54.9,Chiropractic,$195.00
Correa,Annamae,f,24,161.5,61.2,Massage,$65.00
Leeks,Ela,f,28,161.6,63.3,Massage,$65.00
Beckerman,Ninfa,f,39,155.8,61.3,Massage,$65.00
Vanderpool,Annalisa,f,51,154.9,69.6,Massage,$65.00
Appleton,Celsa,f,25,159.,55.7,Chiropractic,$195.00
Olivera,Dominica,f,33,173.6,64.2,Massage,$65.00
Cun,Jayna,f,54,158.3,65.2,Acupuncture,$130.00
Kindle,Oralia,f,35,176.3,70.5,Acupuncture,$130.00
Valerius,Alysia,f,67,158.9,61.6,Acupuncture,$130.00
Torgersen,Mirian,f,60,178.6,67.7,Chiropractic,$195.00
Byrnes,Angella,f,22,165.,66.8,Acupuncture,$130.00
Rearick,Keeley,f,42,166.8,61.2,Massage,$65.00
Walley,Renetta,f,60,174.1,64.4,Massage,$65.00
Sadberry,Priscilla,f,28,177.6,57.9,Chiropractic,$195.00
Torian,Calista,f,62,172.5,63.7,Acupuncture,$130.00
Ding,Jenelle,f,38,178.7,65.9,Acupuncture,$130.00
Purdum,Evon,f,51,172.6,65.,Massage,$65.00
Vallee,Shaneka,f,28,164.3,64.5,Massage,$65.00
Spitler,Dominga,f,48,166.6,58.1,Chiropractic,$195.00
Carini,Zoraida,f,28,160.1,61.7,Chiropractic,$195.00
Chiarello,Marvin,m,27,177.5,66.4,Massage,$65.00
Primavera,Jerrell,m,43,162.1,69.3,Chiropractic,$195.00
Chiang,Reyes,m,35,165.1,70.6,Acupuncture,$130.00
Henninger,Gus,m,36,163.7,65.1,Massage,$65.00
Mares,Lance,m,68,160.,56.3,Chiropractic,$195.00
Farley,Mike,m,21,176.7,62.8,Massage,$65.00
Justiniano,Timothy,m,68,175.9,65.5,Chiropractic,$195.00
Winberg,Vince,m,54,172.3,67.7,Chiropractic,$195.00
Rattler,Alfredo,m,22,148.6,65.7,Massage,$65.00
Newberry,Raul,m,34,157.6,59.6,Acupuncture,$130.00
Zabel,Lucas,m,38,148.8,67.2,Chiropractic,$195.00
Borkowski,Harland,m,28,187.6,59.5,Acupuncture,$130.00
Sandridge,Roscoe,m,27,166.,60.4,Chiropractic,$195.00
Stallcup,Lawerence,m,32,157.,58.7,Chiropractic,$195.00
Jurgensen,Cameron,m,57,153.7,63.1,Acupuncture,$130.00
Atchinson,Kraig,m,67,167.2,66.3,Chiropractic,$195.00
Toupin,Malik,m,28,151.5,58.6,Chiropractic,$195.00
Almanza,Garrett,m,42,168.4,61.6,Acupuncture,$130.00
Boso,Lauren,m,23,159.3,65.9,Massage,$65.00
Picou,Rubin,m,64,160.,69.8,Acupuncture,$130.00
Batey,Randolph,m,43,162.4,65.2,Acupuncture,$130.00
Moriarity,Ronnie,m,53,173.6,63.1,Massage,$65.00
Sanders,Ellis,m,32,161.3,62.9,Massage,$65.00
Wiens,Miguel,m,50,169.1,62.8,Chiropractic,$195.00
Chipps,Loren,m,33,149.4,66.,Chiropractic,$195.00
Greb,Monty,m,30,149.4,57.9,Acupuncture,$130.00
Christensen,Sherman,m,63,160.2,61.4,Chiropractic,$195.00
Aceto,Prince,m,44,163.1,66.3,Acupuncture,$130.00
Spry,Roman,m,68,149.1,67.1,Acupuncture,$130.00
Kesten,Rich,m,42,157.9,55.5,Chiropractic,$195.00
Borja,Erwin,m,69,172.7,54.8,Massage,$65.00
Erving,Amos,m,38,154.,63.8,Acupuncture,$130.00
Dillon,Chet,m,28,158.7,66.,Acupuncture,$130.00
Blades,Travis,m,58,156.9,59.,Chiropractic,$195.00
Seidl,Davis,m,48,165.2,63.2,Chiropractic,$195.00
Streets,Dorian,m,35,167.7,56.9,Massage,$65.00
Oliva,Steven,m,29,180.8,60.8,Chiropractic,$195.00
Gans,Riley,m,59,161.1,55.,Acupuncture,$130.00
Hockaday,Marcellus,m,32,177.3,61.9,Massage,$65.00
Cusic,Quinn,m,55,162.7,67.9,Massage,$65.00
Pettry,Refugio,m,26,158.3,62.5,Acupuncture,$130.00
Winders,Merrill,m,57,148.,65.6,Chiropractic,$195.00
Beach,Emmett,m,35,164.2,62.5,Chiropractic,$195.00
Lehman,Franklyn,m,26,161.9,57.8,Massage,$65.00
Pitre,Lowell,m,22,171.2,58.9,Acupuncture,$130.00
Cowboy,Archie,m,57,156.9,60.2,Chiropractic,$195.00
June,Lesley,m,27,163.1,64.6,Massage,$65.00
Silvas,Chang,m,60,153.2,61.4,Acupuncture,$130.00
Whitwell,Leandro,m,23,174.3,62.7,Chiropractic,$195.00
Block,Coleman,m,63,172.4,59.8,Massage,$65.00
Hillard,Glady,f,53,150.3,63.3,Chiropractic,$195.00
Breese,Joetta,f,27,165.1,64.,Acupuncture,$130.00
Nez,Sindy,f,45,161.2,63.4,Acupuncture,$130.00
Bratten,Vicenta,f,37,155.1,67.3,Massage,$65.00
Blais,Laquanda,f,34,161.7,65.6,Massage,$65.00
Beaton,Vivian,f,45,155.2,62.,Chiropractic,$195.00
Brill,Nina,f,62,146.7,64.7,Massage,$65.00
Vandervort,Rhiannon,f,66,175.,59.8,Acupuncture,$130.00
Reding,Azucena,f,44,163.,62.1,Chiropractic,$195.00
Renfrow,Trula,f,44,138.4,63.7,Massage,$65.00
Taitt,Socorro,f,22,184.9,56.7,Chiropractic,$195.00
Golub,Velia,f,40,172.7,55.2,Massage,$65.00
Hostetler,Klara,f,54,183.2,75.8,Acupuncture,$130.00
Wigginton,Stephine,f,39,169.9,64.,Massage,$65.00
Deibel,Blanch,f,46,155.8,58.3,Acupuncture,$130.00
Alloway,Trista,f,42,183.3,64.,Massage,$65.00
Goldman,Janine,f,52,177.,57.4,Chiropractic,$195.00
Freudenburg,Johanna,f,61,154.7,59.5,Chiropractic,$195.00
Lefebure,Karla,f,65,146.4,60.2,Massage,$65.00
Marcelino,Lecia,f,24,177.9,59.2,Massage,$65.00
Berthold,Margarette,f,34,170.3,65.8,Massage,$65.00
Wiens,Mertie,f,58,151.4,65.6,Massage,$65.00
Nodine,Brianna,f,31,173.9,58.7,Massage,$65.00
Harford,Adria,f,53,152.4,63.3,Acupuncture,$130.00
Sawin,Aleshia,f,50,150.7,63.3,Acupuncture,$130.00
Dudash,Karry,f,62,164.,68.3,Acupuncture,$130.00
Wittig,Digna,f,60,156.3,59.9,Acupuncture,$130.00
Scotti,Jacinda,f,37,167.7,59.3,Chiropractic,$195.00
Evensen,Meryl,f,40,160.1,56.7,Chiropractic,$195.00
Maynard,Luciana,f,65,137.8,68.9,Acupuncture,$130.00
Paolini,Shari,f,49,171.2,61.3,Massage,$65.00
Mcgovern,Fae,f,45,164.,61.6,Chiropractic,$195.00
Tijerina,Emerita,f,30,175.6,61.1,Chiropractic,$195.00
Oakman,Faustina,f,54,170.4,60.7,Chiropractic,$195.00
Perkinson,Carry,f,56,162.1,59.1,Massage,$65.00
Radebaugh,Mallie,f,31,157.5,56.1,Massage,$65.00
Cassano,Ernestina,f,22,173.1,65.7,Acupuncture,$130.00
Hensley,Tatyana,f,65,160.7,61.2,Chiropractic,$195.00
Abbate,Leonila,f,42,190.1,64.1,Chiropractic,$195.00
Youngquist,Norine,f,24,164.8,65.9,Massage,$65.00
Krouse,Mandy,f,54,160.9,57.9,Massage,$65.00
Stocker,Tarah,f,44,178.2,62.1,Chiropractic,$195.00
Wynter,Eveline,f,53,173.,63.2,Acupuncture,$130.00
Jozwiak,Davina,f,32,161.,69.1,Massage,$65.00
Sauer,Evelynn,f,44,161.7,59.9,Acupuncture,$130.00
Demos,Evette,f,32,157.2,65.,Acupuncture,$130.00
Chute,Lakeesha,f,53,177.5,57.2,Massage,$65.00
Coppola,Oretha,f,55,178.,63.2,Massage,$65.00
Tinajero,Joanne,f,27,177.3,64.8,Acupuncture,$130.00
Nord,Clarisa,f,22,160.5,62.4,Chiropractic,$195.00
